{ Error: axis2ns432586:Server: Missing SOA operation name header: {"errorMessage":{"error":{"errorId":"2038","domain":"CoreRuntime","severity":"Error","category":"System","message":"Missing SOA operation name header","subdomain":"System"}}}
    at finish (/home/heri/Documents/WBD/Tugas2/node-soap/node_modules/soap/lib/wsdl/index.js:466:33)
    at WSDL.xmlToObject (/home/heri/Documents/WBD/Tugas2/node-soap/node_modules/soap/lib/wsdl/index.js:447:16)
    at parseSync (/home/heri/Documents/WBD/Tugas2/node-soap/node_modules/soap/lib/client.js:274:36)
    at /home/heri/Documents/WBD/Tugas2/node-soap/node_modules/soap/lib/client.js:438:24
    at Request._callback (/home/heri/Documents/WBD/Tugas2/node-soap/node_modules/soap/lib/http.js:150:17)
    at Request.self.callback (/home/heri/Documents/WBD/Tugas2/node-soap/node_modules/request/request.js:185:22)
    at emitTwo (events.js:126:13)
    at Request.emit (events.js:214:7)
    at Request.<anonymous> (/home/heri/Documents/WBD/Tugas2/node-soap/node_modules/request/request.js:1161:10)
    at emitOne (events.js:116:13)
    at Request.emit (events.js:211:7)
    at IncomingMessage.<anonymous> (/home/heri/Documents/WBD/Tugas2/node-soap/node_modules/request/request.js:1083:12)
    at Object.onceWrapper (events.js:313:30)
    at emitNone (events.js:111:20)
    at IncomingMessage.emit (events.js:208:7)
    at endReadableNT (_stream_readable.js:1064:12)
  root: { Envelope: { Header: null, Body: [Object] } },
  response: 
   IncomingMessage {
     _readableState: 
      ReadableState {
        objectMode: false,
        highWaterMark: 16384,
        buffer: [Object],
        length: 0,
        pipes: null,
        pipesCount: 0,
        flowing: true,
        ended: true,
        endEmitted: true,
        reading: false,
        sync: false,
        needReadable: false,
        emittedReadable: false,
        readableListening: false,
        resumeScheduled: false,
        destroyed: false,
        defaultEncoding: 'utf8',
        awaitDrain: 0,
        readingMore: false,
        decoder: null,
        encoding: null },
     readable: false,
     domain: null,
     _events: 
      { end: [Array],
        close: [Array],
        data: [Function],
        error: [Function] },
     _eventsCount: 4,
     _maxListeners: undefined,
     socket: 
      TLSSocket {
        _tlsOptions: [Object],
        _secureEstablished: true,
        _securePending: false,
        _newSessionPending: false,
        _controlReleased: true,
        _SNICallback: null,
        servername: null,
        npnProtocol: undefined,
        alpnProtocol: false,
        authorized: true,
        authorizationError: null,
        encrypted: true,
        _events: [Object],
        _eventsCount: 9,
        connecting: false,
        _hadError: false,
        _handle: null,
        _parent: [Object],
        _host: null,
        _readableState: [Object],
        readable: false,
        domain: null,
        _maxListeners: undefined,
        _writableState: [Object],
        writable: false,
        allowHalfOpen: false,
        _bytesDispatched: 989,
        _sockname: null,
        _pendingData: null,
        _pendingEncoding: '',
        server: undefined,
        _server: null,
        ssl: null,
        _requestCert: true,
        _rejectUnauthorized: true,
        parser: null,
        _httpMessage: [Object],
        read: [Function],
        _consuming: true,
        _idleNext: null,
        _idlePrev: null,
        _idleTimeout: -1,
        [Symbol(asyncId)]: 210,
        [Symbol(bytesRead)]: 1315 },
     connection: 
      TLSSocket {
        _tlsOptions: [Object],
        _secureEstablished: true,
        _securePending: false,
        _newSessionPending: false,
        _controlReleased: true,
        _SNICallback: null,
        servername: null,
        npnProtocol: undefined,
        alpnProtocol: false,
        authorized: true,
        authorizationError: null,
        encrypted: true,
        _events: [Object],
        _eventsCount: 9,
        connecting: false,
        _hadError: false,
        _handle: null,
        _parent: [Object],
        _host: null,
        _readableState: [Object],
        readable: false,
        domain: null,
        _maxListeners: undefined,
        _writableState: [Object],
        writable: false,
        allowHalfOpen: false,
        _bytesDispatched: 989,
        _sockname: null,
        _pendingData: null,
        _pendingEncoding: '',
        server: undefined,
        _server: null,
        ssl: null,
        _requestCert: true,
        _rejectUnauthorized: true,
        parser: null,
        _httpMessage: [Object],
        read: [Function],
        _consuming: true,
        _idleNext: null,
        _idlePrev: null,
        _idleTimeout: -1,
        [Symbol(asyncId)]: 210,
        [Symbol(bytesRead)]: 1315 },
     httpVersionMajor: 1,
     httpVersionMinor: 1,
     httpVersion: '1.1',
     complete: true,
     headers: 
      { server: 'Apache-Coyote/1.1',
        'x-ebay-soa-service-metrics': '78200',
        'x-ebay-soa-error-response': 'TRUE',
        'x-ebay-soa-request-id': '16bdfafc-b100-a86b-e920-0250ff4c8991!FindingService!10.134.190.146!v3apifindingcore[]',
        'x-ebay-soa-service-version': '1.13.0',
        'x-ebay-soa-message-protocol': 'SOAP11',
        'x-ebay-soa-response-data-format': 'XML',
        'x-ebay-soa-operation-name': '***null***',
        'x-ebay-soa-service-name': '{http://www.ebay.com/marketplace/search/v1/services}FindingService',
        'content-type': 'text/xml;charset=UTF-8',
        'transfer-encoding': 'chunked',
        date: 'Thu, 11 Jul 2019 06:19:28 GMT',
        connection: 'close' },
     rawHeaders: 
      [ 'Server',
        'Apache-Coyote/1.1',
        'X-EBAY-SOA-SERVICE-METRICS',
        '78200',
        'X-EBAY-SOA-ERROR-RESPONSE',
        'TRUE',
        'X-EBAY-SOA-REQUEST-ID',
        '16bdfafc-b100-a86b-e920-0250ff4c8991!FindingService!10.134.190.146!v3apifindingcore[]',
        'X-EBAY-SOA-SERVICE-VERSION',
        '1.13.0',
        'X-EBAY-SOA-MESSAGE-PROTOCOL',
        'SOAP11',
        'X-EBAY-SOA-RESPONSE-DATA-FORMAT',
        'XML',
        'X-EBAY-SOA-OPERATION-NAME',
        '***null***',
        'X-EBAY-SOA-SERVICE-NAME',
        '{http://www.ebay.com/marketplace/search/v1/services}FindingService',
        'Content-Type',
        'text/xml;charset=UTF-8',
        'Transfer-Encoding',
        'chunked',
        'Date',
        'Thu, 11 Jul 2019 06:19:28 GMT',
        'Connection',
        'close' ],
     trailers: {},
     rawTrailers: [],
     upgrade: false,
     url: '',
     method: null,
     statusCode: 500,
     statusMessage: 'Internal Server Error',
     client: 
      TLSSocket {
        _tlsOptions: [Object],
        _secureEstablished: true,
        _securePending: false,
        _newSessionPending: false,
        _controlReleased: true,
        _SNICallback: null,
        servername: null,
        npnProtocol: undefined,
        alpnProtocol: false,
        authorized: true,
        authorizationError: null,
        encrypted: true,
        _events: [Object],
        _eventsCount: 9,
        connecting: false,
        _hadError: false,
        _handle: null,
        _parent: [Object],
        _host: null,
        _readableState: [Object],
        readable: false,
        domain: null,
        _maxListeners: undefined,
        _writableState: [Object],
        writable: false,
        allowHalfOpen: false,
        _bytesDispatched: 989,
        _sockname: null,
        _pendingData: null,
        _pendingEncoding: '',
        server: undefined,
        _server: null,
        ssl: null,
        _requestCert: true,
        _rejectUnauthorized: true,
        parser: null,
        _httpMessage: [Object],
        read: [Function],
        _consuming: true,
        _idleNext: null,
        _idlePrev: null,
        _idleTimeout: -1,
        [Symbol(asyncId)]: 210,
        [Symbol(bytesRead)]: 1315 },
     _consuming: true,
     _dumped: false,
     req: 
      ClientRequest {
        domain: null,
        _events: [Object],
        _eventsCount: 5,
        _maxListeners: undefined,
        output: [],
        outputEncodings: [],
        outputCallbacks: [],
        outputSize: 0,
        writable: true,
        _last: true,
        upgrading: false,
        chunkedEncoding: false,
        shouldKeepAlive: false,
        useChunkedEncodingByDefault: true,
        sendDate: false,
        _removedConnection: false,
        _removedContLen: false,
        _removedTE: false,
        _contentLength: null,
        _hasBody: true,
        _trailer: '',
        finished: true,
        _headerSent: true,
        socket: [Object],
        connection: [Object],
        _header: 'POST /services/search/FindingService/v1 HTTP/1.1\r\nUser-Agent: node-soap/0.28.0\r\nAccept: text/html,application/xhtml+xml,application/xml,text/xml;q=0.9,*/*;q=0.8\r\nAccept-Encoding: none\r\nAccept-Charset: utf-8\r\nConnection: close\r\nHost: svcs.ebay.com\r\nContent-Length: 593\r\nContent-Type: text/xml; charset=utf-8\r\nSOAPAction: "http://www.ebay.com/marketplace/search/v1/services/findItemsByKeywords"\r\n\r\n',
        _onPendingData: [Function: noopPendingOutput],
        agent: [Object],
        socketPath: undefined,
        timeout: undefined,
        method: 'POST',
        path: '/services/search/FindingService/v1',
        _ended: true,
        res: [Circular],
        aborted: undefined,
        timeoutCb: null,
        upgradeOrConnect: false,
        parser: null,
        maxHeadersCount: null,
        [Symbol(outHeadersKey)]: [Object] },
     request: 
      Request {
        domain: null,
        _events: [Object],
        _eventsCount: 5,
        _maxListeners: undefined,
        uri: [Object],
        method: 'POST',
        headers: [Object],
        followAllRedirects: true,
        body: '<?xml version="1.0" encoding="utf-8"?><soap:Envelope xmlns:soap="http://schemas.xmlsoap.org/soap/envelope/" xmlns:xsi="http://www.w3.org/2001/XMLSchema-instance"  xmlns:tns="http://www.ebay.com/marketplace/search/v1/services"><soap:Header><X-EBAY-SOA-OPERATION-NAME>findItemsByKeywords</X-EBAY-SOA-OPERATION-NAME><X-EBAY-SOA-SECURITY-APPNAME>HeriFauz-SimpleLi-PRD-ed8d33955-e0a56611</X-EBAY-SOA-SECURITY-APPNAME></soap:Header><soap:Body><findItemsByKeywordsRequest xmlns="http://www.ebay.com/marketplace/search/v1/services">harry potter</findItemsByKeywordsRequest></soap:Body></soap:Envelope>',
        callback: [Function],
        readable: true,
        writable: true,
        explicitMethod: true,
        _qs: [Object],
        _auth: [Object],
        _oauth: [Object],
        _multipart: [Object],
        _redirect: [Object],
        _tunnel: [Object],
        setHeader: [Function],
        hasHeader: [Function],
        getHeader: [Function],
        removeHeader: [Function],
        localAddress: undefined,
        pool: {},
        dests: [],
        __isRequestRequest: true,
        _callback: [Function],
        proxy: [Object],
        tunnel: true,
        agent: [Object],
        setHost: false,
        originalCookieHeader: undefined,
        _disableCookies: true,
        _jar: undefined,
        port: 443,
        host: 'svcs.ebay.com',
        path: '/services/search/FindingService/v1',
        httpModule: [Object],
        _started: true,
        href: 'https://svcs.ebay.com/services/search/FindingService/v1',
        req: [Object],
        ntick: true,
        response: [Circular],
        originalHost: 'svcs.ebay.com',
        originalHostHeaderName: 'Host',
        responseContent: [Circular],
        _destdata: true,
        _ended: true,
        _callbackCalled: true },
     toJSON: [Function: responseToJSON],
     caseless: Caseless { dict: [Object] },
     read: [Function],
     body: '<?xml version=\'1.0\' encoding=\'utf-8\'?><soapenv:Envelope xmlns:soapenv="http://schemas.xmlsoap.org/soap/envelope/"><soapenv:Header/><soapenv:Body><soapenv:Fault xmlns:axis2ns432586="http://schemas.xmlsoap.org/soap/envelope/"><faultcode>axis2ns432586:Server</faultcode><faultstring>Missing SOA operation name header</faultstring><detail><errorMessage xmlns="http://www.ebay.com/marketplace/search/v1/services"><error><errorId>2038</errorId><domain>CoreRuntime</domain><severity>Error</severity><category>System</category><message>Missing SOA operation name header</message><subdomain>System</subdomain></error></errorMessage></detail></soapenv:Fault></soapenv:Body></soapenv:Envelope>' },
  body: '<?xml version=\'1.0\' encoding=\'utf-8\'?><soapenv:Envelope xmlns:soapenv="http://schemas.xmlsoap.org/soap/envelope/"><soapenv:Header/><soapenv:Body><soapenv:Fault xmlns:axis2ns432586="http://schemas.xmlsoap.org/soap/envelope/"><faultcode>axis2ns432586:Server</faultcode><faultstring>Missing SOA operation name header</faultstring><detail><errorMessage xmlns="http://www.ebay.com/marketplace/search/v1/services"><error><errorId>2038</errorId><domain>CoreRuntime</domain><severity>Error</severity><category>System</category><message>Missing SOA operation name header</message><subdomain>System</subdomain></error></errorMessage></detail></soapenv:Fault></soapenv:Body></soapenv:Envelope>' }
IncomingMessage {
  _readableState: 
   ReadableState {
     objectMode: false,
     highWaterMark: 16384,
     buffer: BufferList { head: null, tail: null, length: 0 },
     length: 0,
     pipes: null,
     pipesCount: 0,
     flowing: true,
     ended: true,
     endEmitted: true,
     reading: false,
     sync: false,
     needReadable: false,
     emittedReadable: false,
     readableListening: false,
     resumeScheduled: false,
     destroyed: false,
     defaultEncoding: 'utf8',
     awaitDrain: 0,
     readingMore: false,
     decoder: null,
     encoding: null },
  readable: false,
  domain: null,
  _events: 
   { end: [ [Function: responseOnEnd], [Function] ],
     close: [ [Function], [Function] ],
     data: [Function],
     error: [Function] },
  _eventsCount: 4,
  _maxListeners: undefined,
  socket: 
   TLSSocket {
     _tlsOptions: 
      { pipe: false,
        secureContext: [Object],
        isServer: false,
        requestCert: true,
        rejectUnauthorized: true,
        session: undefined,
        NPNProtocols: undefined,
        ALPNProtocols: undefined,
        requestOCSP: undefined },
     _secureEstablished: true,
     _securePending: false,
     _newSessionPending: false,
     _controlReleased: true,
     _SNICallback: null,
     servername: null,
     npnProtocol: undefined,
     alpnProtocol: false,
     authorized: true,
     authorizationError: null,
     encrypted: true,
     _events: 
      { close: [Array],
        end: [Object],
        finish: [Function: onSocketFinish],
        _socketEnd: [Function: onSocketEnd],
        secure: [Function],
        free: [Function: onFree],
        agentRemove: [Function: onCloseOrRemove],
        drain: [Function: ondrain],
        error: [Function: socketErrorListener] },
     _eventsCount: 9,
     connecting: false,
     _hadError: false,
     _handle: null,
     _parent: 
      Socket {
        connecting: false,
        _hadError: false,
        _handle: null,
        _parent: null,
        _host: 'cache.itb.ac.id',
        _readableState: [Object],
        readable: false,
        domain: null,
        _events: [Object],
        _eventsCount: 3,
        _maxListeners: undefined,
        _writableState: [Object],
        writable: false,
        allowHalfOpen: false,
        _bytesDispatched: 336,
        _sockname: null,
        _pendingData: null,
        _pendingEncoding: '',
        server: null,
        _server: null,
        parser: null,
        _httpMessage: [Object],
        read: [Function],
        _consuming: true,
        _idleNext: null,
        _idlePrev: null,
        _idleTimeout: -1,
        [Symbol(asyncId)]: 202,
        [Symbol(bytesRead)]: 4385 },
     _host: null,
     _readableState: 
      ReadableState {
        objectMode: false,
        highWaterMark: 16384,
        buffer: [Object],
        length: 0,
        pipes: null,
        pipesCount: 0,
        flowing: true,
        ended: false,
        endEmitted: false,
        reading: true,
        sync: false,
        needReadable: true,
        emittedReadable: false,
        readableListening: false,
        resumeScheduled: false,
        destroyed: true,
        defaultEncoding: 'utf8',
        awaitDrain: 0,
        readingMore: true,
        decoder: null,
        encoding: null },
     readable: false,
     domain: null,
     _maxListeners: undefined,
     _writableState: 
      WritableState {
        objectMode: false,
        highWaterMark: 16384,
        finalCalled: false,
        needDrain: false,
        ending: true,
        ended: true,
        finished: true,
        destroyed: true,
        decodeStrings: false,
        defaultEncoding: 'utf8',
        length: 0,
        writing: false,
        corked: 0,
        sync: false,
        bufferProcessing: false,
        onwrite: [Function: bound onwrite],
        writecb: null,
        writelen: 0,
        bufferedRequest: null,
        lastBufferedRequest: null,
        pendingcb: 0,
        prefinished: true,
        errorEmitted: false,
        bufferedRequestCount: 0,
        corkedRequestsFree: [Object] },
     writable: false,
     allowHalfOpen: false,
     _bytesDispatched: 989,
     _sockname: null,
     _pendingData: null,
     _pendingEncoding: '',
     server: undefined,
     _server: null,
     ssl: null,
     _requestCert: true,
     _rejectUnauthorized: true,
     parser: null,
     _httpMessage: 
      ClientRequest {
        domain: null,
        _events: [Object],
        _eventsCount: 5,
        _maxListeners: undefined,
        output: [],
        outputEncodings: [],
        outputCallbacks: [],
        outputSize: 0,
        writable: true,
        _last: true,
        upgrading: false,
        chunkedEncoding: false,
        shouldKeepAlive: false,
        useChunkedEncodingByDefault: true,
        sendDate: false,
        _removedConnection: false,
        _removedContLen: false,
        _removedTE: false,
        _contentLength: null,
        _hasBody: true,
        _trailer: '',
        finished: true,
        _headerSent: true,
        socket: [Circular],
        connection: [Circular],
        _header: 'POST /services/search/FindingService/v1 HTTP/1.1\r\nUser-Agent: node-soap/0.28.0\r\nAccept: text/html,application/xhtml+xml,application/xml,text/xml;q=0.9,*/*;q=0.8\r\nAccept-Encoding: none\r\nAccept-Charset: utf-8\r\nConnection: close\r\nHost: svcs.ebay.com\r\nContent-Length: 593\r\nContent-Type: text/xml; charset=utf-8\r\nSOAPAction: "http://www.ebay.com/marketplace/search/v1/services/findItemsByKeywords"\r\n\r\n',
        _onPendingData: [Function: noopPendingOutput],
        agent: [Object],
        socketPath: undefined,
        timeout: undefined,
        method: 'POST',
        path: '/services/search/FindingService/v1',
        _ended: true,
        res: [Circular],
        aborted: undefined,
        timeoutCb: null,
        upgradeOrConnect: false,
        parser: null,
        maxHeadersCount: null,
        [Symbol(outHeadersKey)]: [Object] },
     read: [Function],
     _consuming: true,
     _idleNext: null,
     _idlePrev: null,
     _idleTimeout: -1,
     [Symbol(asyncId)]: 210,
     [Symbol(bytesRead)]: 1315 },
  connection: 
   TLSSocket {
     _tlsOptions: 
      { pipe: false,
        secureContext: [Object],
        isServer: false,
        requestCert: true,
        rejectUnauthorized: true,
        session: undefined,
        NPNProtocols: undefined,
        ALPNProtocols: undefined,
        requestOCSP: undefined },
     _secureEstablished: true,
     _securePending: false,
     _newSessionPending: false,
     _controlReleased: true,
     _SNICallback: null,
     servername: null,
     npnProtocol: undefined,
     alpnProtocol: false,
     authorized: true,
     authorizationError: null,
     encrypted: true,
     _events: 
      { close: [Array],
        end: [Object],
        finish: [Function: onSocketFinish],
        _socketEnd: [Function: onSocketEnd],
        secure: [Function],
        free: [Function: onFree],
        agentRemove: [Function: onCloseOrRemove],
        drain: [Function: ondrain],
        error: [Function: socketErrorListener] },
     _eventsCount: 9,
     connecting: false,
     _hadError: false,
     _handle: null,
     _parent: 
      Socket {
        connecting: false,
        _hadError: false,
        _handle: null,
        _parent: null,
        _host: 'cache.itb.ac.id',
        _readableState: [Object],
        readable: false,
        domain: null,
        _events: [Object],
        _eventsCount: 3,
        _maxListeners: undefined,
        _writableState: [Object],
        writable: false,
        allowHalfOpen: false,
        _bytesDispatched: 336,
        _sockname: null,
        _pendingData: null,
        _pendingEncoding: '',
        server: null,
        _server: null,
        parser: null,
        _httpMessage: [Object],
        read: [Function],
        _consuming: true,
        _idleNext: null,
        _idlePrev: null,
        _idleTimeout: -1,
        [Symbol(asyncId)]: 202,
        [Symbol(bytesRead)]: 4385 },
     _host: null,
     _readableState: 
      ReadableState {
        objectMode: false,
        highWaterMark: 16384,
        buffer: [Object],
        length: 0,
        pipes: null,
        pipesCount: 0,
        flowing: true,
        ended: false,
        endEmitted: false,
        reading: true,
        sync: false,
        needReadable: true,
        emittedReadable: false,
        readableListening: false,
        resumeScheduled: false,
        destroyed: true,
        defaultEncoding: 'utf8',
        awaitDrain: 0,
        readingMore: true,
        decoder: null,
        encoding: null },
     readable: false,
     domain: null,
     _maxListeners: undefined,
     _writableState: 
      WritableState {
        objectMode: false,
        highWaterMark: 16384,
        finalCalled: false,
        needDrain: false,
        ending: true,
        ended: true,
        finished: true,
        destroyed: true,
        decodeStrings: false,
        defaultEncoding: 'utf8',
        length: 0,
        writing: false,
        corked: 0,
        sync: false,
        bufferProcessing: false,
        onwrite: [Function: bound onwrite],
        writecb: null,
        writelen: 0,
        bufferedRequest: null,
        lastBufferedRequest: null,
        pendingcb: 0,
        prefinished: true,
        errorEmitted: false,
        bufferedRequestCount: 0,
        corkedRequestsFree: [Object] },
     writable: false,
     allowHalfOpen: false,
     _bytesDispatched: 989,
     _sockname: null,
     _pendingData: null,
     _pendingEncoding: '',
     server: undefined,
     _server: null,
     ssl: null,
     _requestCert: true,
     _rejectUnauthorized: true,
     parser: null,
     _httpMessage: 
      ClientRequest {
        domain: null,
        _events: [Object],
        _eventsCount: 5,
        _maxListeners: undefined,
        output: [],
        outputEncodings: [],
        outputCallbacks: [],
        outputSize: 0,
        writable: true,
        _last: true,
        upgrading: false,
        chunkedEncoding: false,
        shouldKeepAlive: false,
        useChunkedEncodingByDefault: true,
        sendDate: false,
        _removedConnection: false,
        _removedContLen: false,
        _removedTE: false,
        _contentLength: null,
        _hasBody: true,
        _trailer: '',
        finished: true,
        _headerSent: true,
        socket: [Circular],
        connection: [Circular],
        _header: 'POST /services/search/FindingService/v1 HTTP/1.1\r\nUser-Agent: node-soap/0.28.0\r\nAccept: text/html,application/xhtml+xml,application/xml,text/xml;q=0.9,*/*;q=0.8\r\nAccept-Encoding: none\r\nAccept-Charset: utf-8\r\nConnection: close\r\nHost: svcs.ebay.com\r\nContent-Length: 593\r\nContent-Type: text/xml; charset=utf-8\r\nSOAPAction: "http://www.ebay.com/marketplace/search/v1/services/findItemsByKeywords"\r\n\r\n',
        _onPendingData: [Function: noopPendingOutput],
        agent: [Object],
        socketPath: undefined,
        timeout: undefined,
        method: 'POST',
        path: '/services/search/FindingService/v1',
        _ended: true,
        res: [Circular],
        aborted: undefined,
        timeoutCb: null,
        upgradeOrConnect: false,
        parser: null,
        maxHeadersCount: null,
        [Symbol(outHeadersKey)]: [Object] },
     read: [Function],
     _consuming: true,
     _idleNext: null,
     _idlePrev: null,
     _idleTimeout: -1,
     [Symbol(asyncId)]: 210,
     [Symbol(bytesRead)]: 1315 },
  httpVersionMajor: 1,
  httpVersionMinor: 1,
  httpVersion: '1.1',
  complete: true,
  headers: 
   { server: 'Apache-Coyote/1.1',
     'x-ebay-soa-service-metrics': '78200',
     'x-ebay-soa-error-response': 'TRUE',
     'x-ebay-soa-request-id': '16bdfafc-b100-a86b-e920-0250ff4c8991!FindingService!10.134.190.146!v3apifindingcore[]',
     'x-ebay-soa-service-version': '1.13.0',
     'x-ebay-soa-message-protocol': 'SOAP11',
     'x-ebay-soa-response-data-format': 'XML',
     'x-ebay-soa-operation-name': '***null***',
     'x-ebay-soa-service-name': '{http://www.ebay.com/marketplace/search/v1/services}FindingService',
     'content-type': 'text/xml;charset=UTF-8',
     'transfer-encoding': 'chunked',
     date: 'Thu, 11 Jul 2019 06:19:28 GMT',
     connection: 'close' },
  rawHeaders: 
   [ 'Server',
     'Apache-Coyote/1.1',
     'X-EBAY-SOA-SERVICE-METRICS',
     '78200',
     'X-EBAY-SOA-ERROR-RESPONSE',
     'TRUE',
     'X-EBAY-SOA-REQUEST-ID',
     '16bdfafc-b100-a86b-e920-0250ff4c8991!FindingService!10.134.190.146!v3apifindingcore[]',
     'X-EBAY-SOA-SERVICE-VERSION',
     '1.13.0',
     'X-EBAY-SOA-MESSAGE-PROTOCOL',
     'SOAP11',
     'X-EBAY-SOA-RESPONSE-DATA-FORMAT',
     'XML',
     'X-EBAY-SOA-OPERATION-NAME',
     '***null***',
     'X-EBAY-SOA-SERVICE-NAME',
     '{http://www.ebay.com/marketplace/search/v1/services}FindingService',
     'Content-Type',
     'text/xml;charset=UTF-8',
     'Transfer-Encoding',
     'chunked',
     'Date',
     'Thu, 11 Jul 2019 06:19:28 GMT',
     'Connection',
     'close' ],
  trailers: {},
  rawTrailers: [],
  upgrade: false,
  url: '',
  method: null,
  statusCode: 500,
  statusMessage: 'Internal Server Error',
  client: 
   TLSSocket {
     _tlsOptions: 
      { pipe: false,
        secureContext: [Object],
        isServer: false,
        requestCert: true,
        rejectUnauthorized: true,
        session: undefined,
        NPNProtocols: undefined,
        ALPNProtocols: undefined,
        requestOCSP: undefined },
     _secureEstablished: true,
     _securePending: false,
     _newSessionPending: false,
     _controlReleased: true,
     _SNICallback: null,
     servername: null,
     npnProtocol: undefined,
     alpnProtocol: false,
     authorized: true,
     authorizationError: null,
     encrypted: true,
     _events: 
      { close: [Array],
        end: [Object],
        finish: [Function: onSocketFinish],
        _socketEnd: [Function: onSocketEnd],
        secure: [Function],
        free: [Function: onFree],
        agentRemove: [Function: onCloseOrRemove],
        drain: [Function: ondrain],
        error: [Function: socketErrorListener] },
     _eventsCount: 9,
     connecting: false,
     _hadError: false,
     _handle: null,
     _parent: 
      Socket {
        connecting: false,
        _hadError: false,
        _handle: null,
        _parent: null,
        _host: 'cache.itb.ac.id',
        _readableState: [Object],
        readable: false,
        domain: null,
        _events: [Object],
        _eventsCount: 3,
        _maxListeners: undefined,
        _writableState: [Object],
        writable: false,
        allowHalfOpen: false,
        _bytesDispatched: 336,
        _sockname: null,
        _pendingData: null,
        _pendingEncoding: '',
        server: null,
        _server: null,
        parser: null,
        _httpMessage: [Object],
        read: [Function],
        _consuming: true,
        _idleNext: null,
        _idlePrev: null,
        _idleTimeout: -1,
        [Symbol(asyncId)]: 202,
        [Symbol(bytesRead)]: 4385 },
     _host: null,
     _readableState: 
      ReadableState {
        objectMode: false,
        highWaterMark: 16384,
        buffer: [Object],
        length: 0,
        pipes: null,
        pipesCount: 0,
        flowing: true,
        ended: false,
        endEmitted: false,
        reading: true,
        sync: false,
        needReadable: true,
        emittedReadable: false,
        readableListening: false,
        resumeScheduled: false,
        destroyed: true,
        defaultEncoding: 'utf8',
        awaitDrain: 0,
        readingMore: true,
        decoder: null,
        encoding: null },
     readable: false,
     domain: null,
     _maxListeners: undefined,
     _writableState: 
      WritableState {
        objectMode: false,
        highWaterMark: 16384,
        finalCalled: false,
        needDrain: false,
        ending: true,
        ended: true,
        finished: true,
        destroyed: true,
        decodeStrings: false,
        defaultEncoding: 'utf8',
        length: 0,
        writing: false,
        corked: 0,
        sync: false,
        bufferProcessing: false,
        onwrite: [Function: bound onwrite],
        writecb: null,
        writelen: 0,
        bufferedRequest: null,
        lastBufferedRequest: null,
        pendingcb: 0,
        prefinished: true,
        errorEmitted: false,
        bufferedRequestCount: 0,
        corkedRequestsFree: [Object] },
     writable: false,
     allowHalfOpen: false,
     _bytesDispatched: 989,
     _sockname: null,
     _pendingData: null,
     _pendingEncoding: '',
     server: undefined,
     _server: null,
     ssl: null,
     _requestCert: true,
     _rejectUnauthorized: true,
     parser: null,
     _httpMessage: 
      ClientRequest {
        domain: null,
        _events: [Object],
        _eventsCount: 5,
        _maxListeners: undefined,
        output: [],
        outputEncodings: [],
        outputCallbacks: [],
        outputSize: 0,
        writable: true,
        _last: true,
        upgrading: false,
        chunkedEncoding: false,
        shouldKeepAlive: false,
        useChunkedEncodingByDefault: true,
        sendDate: false,
        _removedConnection: false,
        _removedContLen: false,
        _removedTE: false,
        _contentLength: null,
        _hasBody: true,
        _trailer: '',
        finished: true,
        _headerSent: true,
        socket: [Circular],
        connection: [Circular],
        _header: 'POST /services/search/FindingService/v1 HTTP/1.1\r\nUser-Agent: node-soap/0.28.0\r\nAccept: text/html,application/xhtml+xml,application/xml,text/xml;q=0.9,*/*;q=0.8\r\nAccept-Encoding: none\r\nAccept-Charset: utf-8\r\nConnection: close\r\nHost: svcs.ebay.com\r\nContent-Length: 593\r\nContent-Type: text/xml; charset=utf-8\r\nSOAPAction: "http://www.ebay.com/marketplace/search/v1/services/findItemsByKeywords"\r\n\r\n',
        _onPendingData: [Function: noopPendingOutput],
        agent: [Object],
        socketPath: undefined,
        timeout: undefined,
        method: 'POST',
        path: '/services/search/FindingService/v1',
        _ended: true,
        res: [Circular],
        aborted: undefined,
        timeoutCb: null,
        upgradeOrConnect: false,
        parser: null,
        maxHeadersCount: null,
        [Symbol(outHeadersKey)]: [Object] },
     read: [Function],
     _consuming: true,
     _idleNext: null,
     _idlePrev: null,
     _idleTimeout: -1,
     [Symbol(asyncId)]: 210,
     [Symbol(bytesRead)]: 1315 },
  _consuming: true,
  _dumped: false,
  req: 
   ClientRequest {
     domain: null,
     _events: 
      { socket: [Function],
        response: [Function: bound ],
        error: [Function: bound ],
        drain: [Function],
        prefinish: [Function: requestOnPrefinish] },
     _eventsCount: 5,
     _maxListeners: undefined,
     output: [],
     outputEncodings: [],
     outputCallbacks: [],
     outputSize: 0,
     writable: true,
     _last: true,
     upgrading: false,
     chunkedEncoding: false,
     shouldKeepAlive: false,
     useChunkedEncodingByDefault: true,
     sendDate: false,
     _removedConnection: false,
     _removedContLen: false,
     _removedTE: false,
     _contentLength: null,
     _hasBody: true,
     _trailer: '',
     finished: true,
     _headerSent: true,
     socket: 
      TLSSocket {
        _tlsOptions: [Object],
        _secureEstablished: true,
        _securePending: false,
        _newSessionPending: false,
        _controlReleased: true,
        _SNICallback: null,
        servername: null,
        npnProtocol: undefined,
        alpnProtocol: false,
        authorized: true,
        authorizationError: null,
        encrypted: true,
        _events: [Object],
        _eventsCount: 9,
        connecting: false,
        _hadError: false,
        _handle: null,
        _parent: [Object],
        _host: null,
        _readableState: [Object],
        readable: false,
        domain: null,
        _maxListeners: undefined,
        _writableState: [Object],
        writable: false,
        allowHalfOpen: false,
        _bytesDispatched: 989,
        _sockname: null,
        _pendingData: null,
        _pendingEncoding: '',
        server: undefined,
        _server: null,
        ssl: null,
        _requestCert: true,
        _rejectUnauthorized: true,
        parser: null,
        _httpMessage: [Circular],
        read: [Function],
        _consuming: true,
        _idleNext: null,
        _idlePrev: null,
        _idleTimeout: -1,
        [Symbol(asyncId)]: 210,
        [Symbol(bytesRead)]: 1315 },
     connection: 
      TLSSocket {
        _tlsOptions: [Object],
        _secureEstablished: true,
        _securePending: false,
        _newSessionPending: false,
        _controlReleased: true,
        _SNICallback: null,
        servername: null,
        npnProtocol: undefined,
        alpnProtocol: false,
        authorized: true,
        authorizationError: null,
        encrypted: true,
        _events: [Object],
        _eventsCount: 9,
        connecting: false,
        _hadError: false,
        _handle: null,
        _parent: [Object],
        _host: null,
        _readableState: [Object],
        readable: false,
        domain: null,
        _maxListeners: undefined,
        _writableState: [Object],
        writable: false,
        allowHalfOpen: false,
        _bytesDispatched: 989,
        _sockname: null,
        _pendingData: null,
        _pendingEncoding: '',
        server: undefined,
        _server: null,
        ssl: null,
        _requestCert: true,
        _rejectUnauthorized: true,
        parser: null,
        _httpMessage: [Circular],
        read: [Function],
        _consuming: true,
        _idleNext: null,
        _idlePrev: null,
        _idleTimeout: -1,
        [Symbol(asyncId)]: 210,
        [Symbol(bytesRead)]: 1315 },
     _header: 'POST /services/search/FindingService/v1 HTTP/1.1\r\nUser-Agent: node-soap/0.28.0\r\nAccept: text/html,application/xhtml+xml,application/xml,text/xml;q=0.9,*/*;q=0.8\r\nAccept-Encoding: none\r\nAccept-Charset: utf-8\r\nConnection: close\r\nHost: svcs.ebay.com\r\nContent-Length: 593\r\nContent-Type: text/xml; charset=utf-8\r\nSOAPAction: "http://www.ebay.com/marketplace/search/v1/services/findItemsByKeywords"\r\n\r\n',
     _onPendingData: [Function: noopPendingOutput],
     agent: 
      TunnelingAgent {
        options: [Object],
        proxyOptions: [Object],
        maxSockets: Infinity,
        requests: [],
        sockets: [Array],
        _events: [Object],
        _eventsCount: 1,
        request: [Function: request],
        createSocket: [Function: createSecureSocket],
        defaultPort: 443 },
     socketPath: undefined,
     timeout: undefined,
     method: 'POST',
     path: '/services/search/FindingService/v1',
     _ended: true,
     res: [Circular],
     aborted: undefined,
     timeoutCb: null,
     upgradeOrConnect: false,
     parser: null,
     maxHeadersCount: null,
     [Symbol(outHeadersKey)]: 
      { 'user-agent': [Array],
        accept: [Array],
        'accept-encoding': [Array],
        'accept-charset': [Array],
        connection: [Array],
        host: [Array],
        'content-length': [Array],
        'content-type': [Array],
        soapaction: [Array] } },
  request: 
   Request {
     domain: null,
     _events: 
      { error: [Function: bound ],
        complete: [Function: bound ],
        pipe: [Function],
        data: [Function],
        end: [Function] },
     _eventsCount: 5,
     _maxListeners: undefined,
     uri: 
      Url {
        protocol: 'https:',
        slashes: true,
        auth: null,
        host: 'svcs.ebay.com',
        port: 443,
        hostname: 'svcs.ebay.com',
        hash: null,
        search: null,
        query: null,
        pathname: '/services/search/FindingService/v1',
        path: '/services/search/FindingService/v1',
        href: 'https://svcs.ebay.com/services/search/FindingService/v1' },
     method: 'POST',
     headers: 
      { 'User-Agent': 'node-soap/0.28.0',
        Accept: 'text/html,application/xhtml+xml,application/xml,text/xml;q=0.9,*/*;q=0.8',
        'Accept-Encoding': 'none',
        'Accept-Charset': 'utf-8',
        Connection: 'close',
        Host: 'svcs.ebay.com',
        'Content-Length': 593,
        'Content-Type': 'text/xml; charset=utf-8',
        SOAPAction: '"http://www.ebay.com/marketplace/search/v1/services/findItemsByKeywords"' },
     followAllRedirects: true,
     body: '<?xml version="1.0" encoding="utf-8"?><soap:Envelope xmlns:soap="http://schemas.xmlsoap.org/soap/envelope/" xmlns:xsi="http://www.w3.org/2001/XMLSchema-instance"  xmlns:tns="http://www.ebay.com/marketplace/search/v1/services"><soap:Header><X-EBAY-SOA-OPERATION-NAME>findItemsByKeywords</X-EBAY-SOA-OPERATION-NAME><X-EBAY-SOA-SECURITY-APPNAME>HeriFauz-SimpleLi-PRD-ed8d33955-e0a56611</X-EBAY-SOA-SECURITY-APPNAME></soap:Header><soap:Body><findItemsByKeywordsRequest xmlns="http://www.ebay.com/marketplace/search/v1/services">harry potter</findItemsByKeywordsRequest></soap:Body></soap:Envelope>',
     callback: [Function],
     readable: true,
     writable: true,
     explicitMethod: true,
     _qs: 
      Querystring {
        request: [Circular],
        lib: [Object],
        useQuerystring: undefined,
        parseOptions: {},
        stringifyOptions: {} },
     _auth: 
      Auth {
        request: [Circular],
        hasAuth: false,
        sentAuth: false,
        bearerToken: null,
        user: null,
        pass: null },
     _oauth: OAuth { request: [Circular], params: null },
     _multipart: 
      Multipart {
        request: [Circular],
        boundary: '15a57da4-ad32-476a-b554-c17470f8494e',
        chunked: false,
        body: null },
     _redirect: 
      Redirect {
        request: [Circular],
        followRedirect: true,
        followRedirects: true,
        followAllRedirects: true,
        followOriginalHttpMethod: false,
        allowRedirect: [Function],
        maxRedirects: 10,
        redirects: [],
        redirectsFollowed: 0,
        removeRefererHeader: false },
     _tunnel: 
      Tunnel {
        request: [Circular],
        proxyHeaderWhiteList: [Array],
        proxyHeaderExclusiveList: [] },
     setHeader: [Function],
     hasHeader: [Function],
     getHeader: [Function],
     removeHeader: [Function],
     localAddress: undefined,
     pool: {},
     dests: [],
     __isRequestRequest: true,
     _callback: [Function],
     proxy: 
      Url {
        protocol: 'http:',
        slashes: true,
        auth: 'heri_fauzan:15858880',
        host: 'cache.itb.ac.id:8080',
        port: '8080',
        hostname: 'cache.itb.ac.id',
        hash: null,
        search: null,
        query: null,
        pathname: '/',
        path: '/',
        href: 'http://heri_fauzan:15858880@cache.itb.ac.id:8080/' },
     tunnel: true,
     agent: 
      TunnelingAgent {
        options: [Object],
        proxyOptions: [Object],
        maxSockets: Infinity,
        requests: [],
        sockets: [Array],
        _events: [Object],
        _eventsCount: 1,
        request: [Function: request],
        createSocket: [Function: createSecureSocket],
        defaultPort: 443 },
     setHost: false,
     originalCookieHeader: undefined,
     _disableCookies: true,
     _jar: undefined,
     port: 443,
     host: 'svcs.ebay.com',
     path: '/services/search/FindingService/v1',
     httpModule: 
      { Server: [Object],
        createServer: [Function: createServer],
        globalAgent: [Object],
        Agent: [Object],
        request: [Function: request],
        get: [Function: get] },
     _started: true,
     href: 'https://svcs.ebay.com/services/search/FindingService/v1',
     req: 
      ClientRequest {
        domain: null,
        _events: [Object],
        _eventsCount: 5,
        _maxListeners: undefined,
        output: [],
        outputEncodings: [],
        outputCallbacks: [],
        outputSize: 0,
        writable: true,
        _last: true,
        upgrading: false,
        chunkedEncoding: false,
        shouldKeepAlive: false,
        useChunkedEncodingByDefault: true,
        sendDate: false,
        _removedConnection: false,
        _removedContLen: false,
        _removedTE: false,
        _contentLength: null,
        _hasBody: true,
        _trailer: '',
        finished: true,
        _headerSent: true,
        socket: [Object],
        connection: [Object],
        _header: 'POST /services/search/FindingService/v1 HTTP/1.1\r\nUser-Agent: node-soap/0.28.0\r\nAccept: text/html,application/xhtml+xml,application/xml,text/xml;q=0.9,*/*;q=0.8\r\nAccept-Encoding: none\r\nAccept-Charset: utf-8\r\nConnection: close\r\nHost: svcs.ebay.com\r\nContent-Length: 593\r\nContent-Type: text/xml; charset=utf-8\r\nSOAPAction: "http://www.ebay.com/marketplace/search/v1/services/findItemsByKeywords"\r\n\r\n',
        _onPendingData: [Function: noopPendingOutput],
        agent: [Object],
        socketPath: undefined,
        timeout: undefined,
        method: 'POST',
        path: '/services/search/FindingService/v1',
        _ended: true,
        res: [Circular],
        aborted: undefined,
        timeoutCb: null,
        upgradeOrConnect: false,
        parser: null,
        maxHeadersCount: null,
        [Symbol(outHeadersKey)]: [Object] },
     ntick: true,
     response: [Circular],
     originalHost: 'svcs.ebay.com',
     originalHostHeaderName: 'Host',
     responseContent: [Circular],
     _destdata: true,
     _ended: true,
     _callbackCalled: true },
  toJSON: [Function: responseToJSON],
  caseless: 
   Caseless {
     dict: 
      { server: 'Apache-Coyote/1.1',
        'x-ebay-soa-service-metrics': '78200',
        'x-ebay-soa-error-response': 'TRUE',
        'x-ebay-soa-request-id': '16bdfafc-b100-a86b-e920-0250ff4c8991!FindingService!10.134.190.146!v3apifindingcore[]',
        'x-ebay-soa-service-version': '1.13.0',
        'x-ebay-soa-message-protocol': 'SOAP11',
        'x-ebay-soa-response-data-format': 'XML',
        'x-ebay-soa-operation-name': '***null***',
        'x-ebay-soa-service-name': '{http://www.ebay.com/marketplace/search/v1/services}FindingService',
        'content-type': 'text/xml;charset=UTF-8',
        'transfer-encoding': 'chunked',
        date: 'Thu, 11 Jul 2019 06:19:28 GMT',
        connection: 'close' } },
  read: [Function],
  body: '<?xml version=\'1.0\' encoding=\'utf-8\'?><soapenv:Envelope xmlns:soapenv="http://schemas.xmlsoap.org/soap/envelope/"><soapenv:Header/><soapenv:Body><soapenv:Fault xmlns:axis2ns432586="http://schemas.xmlsoap.org/soap/envelope/"><faultcode>axis2ns432586:Server</faultcode><faultstring>Missing SOA operation name header</faultstring><detail><errorMessage xmlns="http://www.ebay.com/marketplace/search/v1/services"><error><errorId>2038</errorId><domain>CoreRuntime</domain><severity>Error</severity><category>System</category><message>Missing SOA operation name header</message><subdomain>System</subdomain></error></errorMessage></detail></soapenv:Fault></soapenv:Body></soapenv:Envelope>' }
